{
"annotations": {
    "list": [
      {
        "builtIn": 1,
        "datasource": {
          "type": "loki",
          "uid": "P8E80F9AEF21F6940"
        },
        "enable": true,
        "hide": true,
        "iconColor": "rgba(0, 211, 255, 1)",
        "name": "Annotations & Alerts",
        "target": {
          "limit": 100,
          "matchAny": false,
          "tags": [],
          "type": "dashboard"
        },
        "type": "dashboard"
      }
    ]
  },
  "editable": true,
  "fiscalYearStartMonth": 0,
  "graphTooltip": 2,
  "id": 2,
  "links": [],
  "liveNow": false,
  "panels": [
    {
      "datasource": {
        "type": "loki",
        "uid": "P8E80F9AEF21F6940"
      },
      "fieldConfig": {
        "defaults": {
          "color": {
            "mode": "palette-classic"
          },
          "custom": {
            "axisCenteredZero": false,
            "axisColorMode": "text",
            "axisLabel": "",
            "axisPlacement": "left",
            "barAlignment": 0,
            "drawStyle": "line",
            "fillOpacity": 0,
            "gradientMode": "none",
            "hideFrom": {
              "legend": false,
              "tooltip": false,
              "viz": false
            },
            "insertNulls": false,
            "lineInterpolation": "linear",
            "lineStyle": {
              "fill": "solid"
            },
            "lineWidth": 1,
            "pointSize": 5,
            "scaleDistribution": {
              "log": 2,
              "type": "log"
            },
            "showPoints": "auto",
            "spanNulls": false,
            "stacking": {
              "group": "A",
              "mode": "none"
            },
            "thresholdsStyle": {
              "mode": "off"
            }
          },
          "mappings": [],
          "thresholds": {
            "mode": "absolute",
            "steps": [
              {
                "color": "green",
                "value": null
              },
              {
                "color": "red",
                "value": 80
              }
            ]
          }
        },
        "overrides": []
      },
      "gridPos": {
        "h": 8,
        "w": 23,
        "x": 0,
        "y": 0
      },
      "id": 9,
      "options": {
        "legend": {
          "calcs": [],
          "displayMode": "list",
          "placement": "bottom",
          "showLegend": true
        },
        "tooltip": {
          "mode": "single",
          "sort": "none"
        }
      },
      "targets": [
        {
          "datasource": {
            "type": "loki",
            "uid": "P8E80F9AEF21F6940"
          },
          "editorMode": "builder",
          "expr": "rate({job=~\"oai-gnb|open5gs|quectel-cm|ue-metrics\"}[$__interval])",
          "queryType": "range",
          "refId": "A"
        }
      ],
      "title": "log events",
      "type": "timeseries"
    },
    {
      "datasource": {
        "type": "loki",
        "uid": "P8E80F9AEF21F6940"
      },
      "description": "",
      "gridPos": {
        "h": 7,
        "w": 16,
        "x": 0,
        "y": 8
      },
      "id": 6,
      "options": {
        "dedupStrategy": "none",
        "enableLogDetails": true,
        "prettifyLogMessage": false,
        "showCommonLabels": false,
        "showLabels": true,
        "showTime": true,
        "sortOrder": "Ascending",
        "wrapLogMessage": false
      },
      "targets": [
        {
          "datasource": {
            "type": "loki",
            "uid": "P8E80F9AEF21F6940"
          },
          "editorMode": "builder",
          "expr": "{job=~\"quectel-cm|ue-metrics\"} |= `$filter` | host = `$query1`",
          "maxLines": 1000,
          "queryType": "range",
          "refId": "A"
        }
      ],
      "title": "UE",
      "type": "logs"
    },
    {
      "autoZoom": true,
      "datasource": {
        "type": "loki",
        "uid": "P8E80F9AEF21F6940"
      },
      "defaultLayer": "OpenStreetMap",
      "description": "",
      "gridPos": {
        "h": 21,
        "w": 7,
        "x": 16,
        "y": 8
      },
      "id": 4,
      "lineColor": "red",
      "maxDataPoints": 5000,
      "pluginVersion": "10.0.3",
      "pointColor": "#5794F2",
      "scrollWheelZoom": false,
      "showLayerChanger": false,
      "targets": [
        {
          "datasource": {
            "type": "loki",
            "uid": "P8E80F9AEF21F6940"
          },
          "editorMode": "builder",
          "expr": "{job=\"gps\", host=\"$query1\"} | json | class = `TPV`",
          "key": "Q-7bfb5c99-8e55-485b-96c8-36eff4674834-0",
          "maxLines": 5000,
          "queryType": "range",
          "refId": "A"
        }
      ],
      "title": "New Panel",
      "transformations": [
        {
          "id": "extractFields",
          "options": {
            "format": "json",
            "keepTime": false,
            "replace": true,
            "source": "labels"
          }
        },
        {
          "id": "organize",
          "options": {
            "excludeByName": {
              "alt": true,
              "altHAE": true,
              "altMSL": true,
              "class": true,
              "climb": true,
              "device": true,
              "dgpsAge": true,
              "dgpsSta": true,
              "epc": true,
              "epd": true,
              "eph": true,
              "eps": true,
              "ept": true,
              "epv": true,
              "epx": true,
              "epy": true,
              "filename": true,
              "geoidSep": true,
              "host": true,
              "job": true,
              "magtrack": true,
              "magvar": true,
              "mode": true,
              "speed": true,
              "time": false,
              "track": true
            },
            "indexByName": {
              "alt": 1,
              "altHAE": 2,
              "altMSL": 3,
              "class": 4,
              "climb": 5,
              "device": 6,
              "dgpsAge": 7,
              "dgpsSta": 8,
              "eph": 9,
              "ept": 10,
              "filename": 11,
              "geoidSep": 12,
              "host": 13,
              "job": 14,
              "lat": 15,
              "lon": 16,
              "magtrack": 17,
              "magvar": 18,
              "mode": 19,
              "speed": 20,
              "time": 0,
              "track": 21
            },
            "renameByName": {
              "lat": "latitude",
              "lon": "longitude"
            }
          }
        },
        {
          "id": "convertFieldType",
          "options": {
            "conversions": [
              {
                "destinationType": "number",
                "targetField": "latitude"
              },
              {
                "destinationType": "number",
                "targetField": "longitude"
              },
              {
                "destinationType": "time",
                "targetField": "time"
              }
            ],
            "fields": {}
          }
        },
        {
          "id": "prepareTimeSeries",
          "options": {
            "format": "multi"
          }
        }
      ],
      "type": "pr0ps-trackmap-panel"
    },
    {
      "datasource": {
        "type": "loki",
        "uid": "P8E80F9AEF21F6940"
      },
      "description": "",
      "fieldConfig": {
        "defaults": {
          "color": {
            "mode": "palette-classic"
          },
          "custom": {
            "axisCenteredZero": false,
            "axisColorMode": "text",
            "axisLabel": "",
            "axisPlacement": "auto",
            "barAlignment": 0,
            "drawStyle": "line",
            "fillOpacity": 0,
            "gradientMode": "none",
            "hideFrom": {
              "legend": false,
              "tooltip": false,
              "viz": false
            },
            "insertNulls": false,
            "lineInterpolation": "linear",
            "lineWidth": 1,
            "pointSize": 5,
            "scaleDistribution": {
              "type": "linear"
            },
            "showPoints": "auto",
            "spanNulls": false,
            "stacking": {
              "group": "A",
              "mode": "none"
            },
            "thresholdsStyle": {
              "mode": "off"
            }
          },
          "mappings": [],
          "thresholds": {
            "mode": "absolute",
            "steps": [
              {
                "color": "green",
                "value": null
              },
              {
                "color": "red",
                "value": 80
              }
            ]
          }
        },
        "overrides": []
      },
      "gridPos": {
        "h": 7,
        "w": 16,
        "x": 0,
        "y": 15
      },
      "id": 10,
      "options": {
        "legend": {
          "calcs": [],
          "displayMode": "list",
          "placement": "bottom",
          "showLegend": true
        },
        "tooltip": {
          "mode": "single",
          "sort": "none"
        }
      },
      "pluginVersion": "10.0.3",
      "targets": [
        {
          "datasource": {
            "type": "loki",
            "uid": "P8E80F9AEF21F6940"
          },
          "editorMode": "builder",
          "expr": "{job=~\"ue-metrics\"} | host = `$query1` |= `NR5G-SA` | pattern `<_> \"<cmd>\",\"<status>\",\"<rat>\",\"<frame_cfg>\", <mcc>,<mnc>,<cell_id>,<pci>,<tac>,<arfcn>,<band>,<bw>,<rsrp>,<rsrq>,<sinr>,<tx_power>,<srxlev>`",
          "hide": false,
          "maxLines": 1000,
          "queryType": "range",
          "refId": "A"
        }
      ],
      "title": "UE metrics",
      "transformations": [
        {
          "id": "extractFields",
          "options": {
            "format": "auto",
            "keepTime": false,
            "replace": false,
            "source": "labels"
          }
        },
        {
          "id": "organize",
          "options": {
            "excludeByName": {
              "Line": true,
              "Time": false,
              "arfcn": true,
              "band": true,
              "bw": true,
              "cell_id": true,
              "cmd": true,
              "filename": true,
              "frame_cfg": true,
              "host": true,
              "id": true,
              "job": true,
              "labels": true,
              "mcc": true,
              "mnc": true,
              "pci": true,
              "rat": true,
              "srxlev": true,
              "status": true,
              "tac": true,
              "tsNs": true,
              "tx_power": true
            },
            "indexByName": {},
            "renameByName": {}
          }
        },
        {
          "id": "convertFieldType",
          "options": {
            "conversions": [
              {
                "destinationType": "number",
                "targetField": "rsrp"
              },
              {
                "destinationType": "number",
                "targetField": "rsrq"
              },
              {
                "destinationType": "number",
                "targetField": "sinr"
              },
              {
                "destinationType": "number",
                "targetField": "tx_power"
              }
            ],
            "fields": {}
          }
        }
      ],
      "type": "timeseries"
    },
    {
      "datasource": {
        "type": "loki",
        "uid": "P8E80F9AEF21F6940"
      },
      "description": "",
      "gridPos": {
        "h": 8,
        "w": 16,
        "x": 0,
        "y": 22
      },
      "id": 8,
      "options": {
        "dedupStrategy": "none",
        "enableLogDetails": true,
        "prettifyLogMessage": false,
        "showCommonLabels": false,
        "showLabels": true,
        "showTime": true,
        "sortOrder": "Ascending",
        "wrapLogMessage": false
      },
      "targets": [
        {
          "datasource": {
            "type": "loki",
            "uid": "P8E80F9AEF21F6940"
          },
          "editorMode": "builder",
          "expr": "{job=~\"open5gs\"} |= `$filter`",
          "maxLines": 1000,
          "queryType": "range",
          "refId": "A"
        }
      ],
      "title": "Core Network",
      "type": "logs"
    },
    {
      "datasource": {
        "type": "loki",
        "uid": "P8E80F9AEF21F6940"
      },
      "description": "",
      "gridPos": {
        "h": 6,
        "w": 16,
        "x": 0,
        "y": 30
      },
      "id": 2,
      "options": {
        "dedupStrategy": "none",
        "enableLogDetails": true,
        "prettifyLogMessage": false,
        "showCommonLabels": false,
        "showLabels": true,
        "showTime": true,
        "sortOrder": "Ascending",
        "wrapLogMessage": false
      },
      "targets": [
        {
          "datasource": {
            "type": "loki",
            "uid": "P8E80F9AEF21F6940"
          },
          "editorMode": "builder",
          "expr": "{job=~\"oai-gnb\"} |= `$filter`",
          "maxLines": 1000,
          "queryType": "range",
          "refId": "A"
        }
      ],
      "title": "gNodeB",
      "type": "logs"
    }
  ],
  "refresh": "5s",
  "schemaVersion": 38,
  "style": "dark",
  "tags": [],
  "templating": {
    "list": [
      {
        "current": {
          "selected": true,
          "text": "",
          "value": ""
        },
        "hide": 0,
        "name": "filter",
        "options": [
          {
            "selected": true,
            "text": "",
            "value": ""
          }
        ],
        "query": "",
        "skipUrlSync": false,
        "type": "textbox"
      },
      {
        "current": {
          "selected": true,
          "text": [
            "All"
          ],
          "value": [
            "$__all"
          ]
        },
        "datasource": {
          "type": "loki",
          "uid": "P8E80F9AEF21F6940"
        },
        "definition": "",
        "hide": 0,
        "includeAll": true,
        "label": "Job",
        "multi": true,
        "name": "query0",
        "options": [],
        "query": {
          "label": "job",
          "refId": "LokiVariableQueryEditor-VariableQuery",
          "stream": "",
          "type": 1
        },
        "refresh": 2,
        "regex": "",
        "skipUrlSync": false,
        "sort": 0,
        "type": "query"
      },
      {
        "current": {
          "selected": false,
          "text": "bus-6182",
          "value": "bus-6182"
        },
        "datasource": {
          "type": "loki",
          "uid": "P8E80F9AEF21F6940"
        },
        "definition": "",
        "hide": 0,
        "includeAll": false,
        "label": "Bus",
        "multi": false,
        "name": "query1",
        "options": [],
        "query": {
          "label": "host",
          "refId": "LokiVariableQueryEditor-VariableQuery",
          "stream": "{job=\"gps\"}",
          "type": 1
        },
        "refresh": 2,
        "regex": "",
        "skipUrlSync": false,
        "sort": 0,
        "type": "query"
      }
    ]
  },
  "time": {
    "from": "now-30m",
    "to": "now"
  },
  "timepicker": {},
  "timezone": "",
  "title": "POWDER 5G",
  "uid": "cb4263d7-9652-4107-bff1-fc4a5e82ba71",
  "version": 7,
  "weekStart": ""
}
